[
  {
    "circuito": "TONRE06607",
    "comunicacion": "Sin conexión",
    "sincronizacion": "2017-05-05 11:38:05.0",
    "ubicacion": "Tonala",
    "operacion": "Sin conexión",
    "control": "Foto Celda"
  },
  {
    "circuito": "UPrueba",
    "comunicacion": "Sin conexión",
    "sincronizacion": "2017-03-13 13:32:57.0",
    "ubicacion": "Guadalajara",
    "operacion": "Sin conexión",
    "control": "Foto Celda"
  },
  {
    "circuito": "TONOB03301",
    "comunicacion": "Proyectado",
    "sincronizacion": "",
    "ubicacion": "Tonala",
    "operacion": "Proyectado",
    "control": "Foto Celda"
  },
  {
    "circuito": "TONOB03401",
    "comunicacion": "Proyectado",
    "sincronizacion": "",
    "ubicacion": "Tonala",
    "operacion": "Proyectado",
    "control": "Foto Celda"
  },
  {
    "circuito": "TONOB03403",
    "comunicacion": "Proyectado",
    "sincronizacion": "",
    "ubicacion": "Tonala",
    "operacion": "Proyectado",
    "control": "Foto Celda"
  },
  {
    "circuito": "TONOB03402",
    "comunicacion": "Proyectado",
    "sincronizacion": "",
    "ubicacion": "Guadalajara",
    "operacion": "Proyectado",
    "control": "Foto Celda"
  },
  {
    "circuito": "TONOB03502",
    "comunicacion": "Proyectado",
    "sincronizacion": "",
    "ubicacion": "Tonala",
    "operacion": "Proyectado",
    "control": "Foto Celda"
  },
  {
    "circuito": "TONOB03501",
    "comunicacion": "Proyectado",
    "sincronizacion": "",
    "ubicacion": "Tonala",
    "operacion": "Proyectado",
    "control": "Foto Celda"
  },
  {
    "circuito": "TONOB03201",
    "comunicacion": "Proyectado",
    "sincronizacion": "",
    "ubicacion": "Tonala",
    "operacion": "Proyectado",
    "control": "Foto Celda"
  },
  {
    "circuito": "TONOB03202",
    "comunicacion": "Proyectado",
    "sincronizacion": "",
    "ubicacion": "Tonala",
    "operacion": "Proyectado",
    "control": "Foto Celda"
  },
  {
    "circuito": "TONOB03601",
    "comunicacion": "Proyectado",
    "sincronizacion": "",
    "ubicacion": "Tonala",
    "operacion": "Proyectado",
    "control": "Foto Celda"
  },
  {
    "circuito": "TONOB03603",
    "comunicacion": "Proyectado",
    "sincronizacion": "",
    "ubicacion": "Tonala",
    "operacion": "Proyectado",
    "control": "Foto Celda"
  },
  {
    "circuito": "TONOB03602",
    "comunicacion": "Proyectado",
    "sincronizacion": "",
    "ubicacion": "Tonala",
    "operacion": "Proyectado",
    "control": "Foto Celda"
  },
  {
    "circuito": "TONOB03604",
    "comunicacion": "Proyectado",
    "sincronizacion": "",
    "ubicacion": "Tonala",
    "operacion": "Proyectado",
    "control": "Foto Celda"
  },
  {
    "circuito": "TONOB03901",
    "comunicacion": "Proyectado",
    "sincronizacion": "",
    "ubicacion": "Tonala",
    "operacion": "Proyectado",
    "control": "Foto Celda"
  },
  {
    "circuito": "TONOB04002",
    "comunicacion": "Proyectado",
    "sincronizacion": "",
    "ubicacion": "Tonala",
    "operacion": "Proyectado",
    "control": "Foto Celda"
  },
  {
    "circuito": "TONOB04301",
    "comunicacion": "Proyectado",
    "sincronizacion": "",
    "ubicacion": "Tonala",
    "operacion": "Proyectado",
    "control": "Foto Celda"
  },
  {
    "circuito": "TONOB04302",
    "comunicacion": "Proyectado",
    "sincronizacion": "",
    "ubicacion": "Tonala",
    "operacion": "Proyectado",
    "control": "Foto Celda"
  },
  {
    "circuito": "TONOB04303",
    "comunicacion": "Proyectado",
    "sincronizacion": "",
    "ubicacion": "Tonala",
    "operacion": "Proyectado",
    "control": "Foto Celda"
  },
  {
    "circuito": "TONOB04001",
    "comunicacion": "Proyectado",
    "sincronizacion": "",
    "ubicacion": "Tonala",
    "operacion": "Proyectado",
    "control": "Foto Celda"
  },
  {
    "circuito": "TONOB03902",
    "comunicacion": "Proyectado",
    "sincronizacion": "",
    "ubicacion": "Tonala",
    "operacion": "Proyectado",
    "control": "Foto Celda"
  },
  {
    "circuito": "TONOB03903",
    "comunicacion": "Proyectado",
    "sincronizacion": "",
    "ubicacion": "Tonala",
    "operacion": "Proyectado",
    "control": "Foto Celda"
  },
  {
    "circuito": "TONOB04204",
    "comunicacion": "Proyectado",
    "sincronizacion": "",
    "ubicacion": "Tonala",
    "operacion": "Proyectado",
    "control": "Foto Celda"
  },
  {
    "circuito": "TONOB04203",
    "comunicacion": "Proyectado",
    "sincronizacion": "",
    "ubicacion": "Tonala",
    "operacion": "Proyectado",
    "control": "Foto Celda"
  },
  {
    "circuito": "TONOB04201",
    "comunicacion": "Proyectado",
    "sincronizacion": "",
    "ubicacion": "Tonala",
    "operacion": "Proyectado",
    "control": "Foto Celda"
  },
  {
    "circuito": "TONOB04202",
    "comunicacion": "Proyectado",
    "sincronizacion": "",
    "ubicacion": "Tonala",
    "operacion": "Proyectado",
    "control": "Foto Celda"
  },
  {
    "circuito": "TONOB03704",
    "comunicacion": "Proyectado",
    "sincronizacion": "",
    "ubicacion": "Tonala",
    "operacion": "Proyectado",
    "control": "Foto Celda"
  },
  {
    "circuito": "TONOB03703",
    "comunicacion": "Proyectado",
    "sincronizacion": "",
    "ubicacion": "Tonala",
    "operacion": "Proyectado",
    "control": "Foto Celda"
  },
  {
    "circuito": "TONOB03701",
    "comunicacion": "Proyectado",
    "sincronizacion": "",
    "ubicacion": "Tonala",
    "operacion": "Proyectado",
    "control": "Foto Celda"
  },
  {
    "circuito": "TONOB03702",
    "comunicacion": "Proyectado",
    "sincronizacion": "",
    "ubicacion": "Tonala",
    "operacion": "Proyectado",
    "control": "Foto Celda"
  },
  {
    "circuito": "TONOB03801",
    "comunicacion": "Proyectado",
    "sincronizacion": "",
    "ubicacion": "Tonala",
    "operacion": "Proyectado",
    "control": "Foto Celda"
  },
  {
    "circuito": "TONOB03802",
    "comunicacion": "Proyectado",
    "sincronizacion": "",
    "ubicacion": "Tonala",
    "operacion": "Proyectado",
    "control": "Foto Celda"
  },
  {
    "circuito": "TONOB03503",
    "comunicacion": "Proyectado",
    "sincronizacion": "",
    "ubicacion": "Tonala",
    "operacion": "Proyectado",
    "control": "Foto Celda"
  },
  {
    "circuito": "TONOB04103",
    "comunicacion": "Proyectado",
    "sincronizacion": "",
    "ubicacion": "Tonala",
    "operacion": "Proyectado",
    "control": "Foto Celda"
  },
  {
    "circuito": "TONOB04101",
    "comunicacion": "Proyectado",
    "sincronizacion": "",
    "ubicacion": "Tonala",
    "operacion": "Proyectado",
    "control": "Foto Celda"
  },
  {
    "circuito": "TONOB04102",
    "comunicacion": "Proyectado",
    "sincronizacion": "",
    "ubicacion": "Tonala",
    "operacion": "Proyectado",
    "control": "Foto Celda"
  },
  {
    "circuito": "TONOB03404",
    "comunicacion": "Proyectado",
    "sincronizacion": "",
    "ubicacion": "Tonala",
    "operacion": "Proyectado",
    "control": "Foto Celda"
  },
  {
    "circuito": "TONRE06104",
    "comunicacion": "Proyectado",
    "sincronizacion": "",
    "ubicacion": "Tonala",
    "operacion": "Proyectado",
    "control": "Foto Celda"
  },
  {
    "circuito": "TONRE06902",
    "comunicacion": "Proyectado",
    "sincronizacion": "",
    "ubicacion": "Tonala",
    "operacion": "Proyectado",
    "control": "Foto Celda"
  },
  {
    "circuito": "TONRE07705",
    "comunicacion": "Proyectado",
    "sincronizacion": "",
    "ubicacion": "Tonala",
    "operacion": "Proyectado",
    "control": "Foto Celda"
  },
  {
    "circuito": "TONRE07704",
    "comunicacion": "Proyectado",
    "sincronizacion": "",
    "ubicacion": "Tonala",
    "operacion": "Proyectado",
    "control": "Foto Celda"
  },
  {
    "circuito": "TONRE06903",
    "comunicacion": "Proyectado",
    "sincronizacion": "",
    "ubicacion": "Tonala",
    "operacion": "Proyectado",
    "control": "Foto Celda"
  },
  {
    "circuito": "TONRE07701",
    "comunicacion": "Proyectado",
    "sincronizacion": "",
    "ubicacion": "Tonala",
    "operacion": "Proyectado",
    "control": "Foto Celda"
  },
  {
    "circuito": "TONRE07703",
    "comunicacion": "Proyectado",
    "sincronizacion": "",
    "ubicacion": "Tonala",
    "operacion": "Proyectado",
    "control": "Foto Celda"
  },
  {
    "circuito": "TONRE08003",
    "comunicacion": "Proyectado",
    "sincronizacion": "",
    "ubicacion": "Tonala",
    "operacion": "Proyectado",
    "control": "Foto Celda"
  },
  {
    "circuito": "TONLI01501",
    "comunicacion": "Proyectado",
    "sincronizacion": "",
    "ubicacion": "Tonala",
    "operacion": "Proyectado",
    "control": "Foto Celda"
  },
  {
    "circuito": "TONLI01502",
    "comunicacion": "Proyectado",
    "sincronizacion": "",
    "ubicacion": "Tonala",
    "operacion": "Proyectado",
    "control": "Foto Celda"
  },
  {
    "circuito": "TONLI01503",
    "comunicacion": "Proyectado",
    "sincronizacion": "",
    "ubicacion": "Tonala",
    "operacion": "Proyectado",
    "control": "Foto Celda"
  },
  {
    "circuito": "TONLI01601",
    "comunicacion": "Proyectado",
    "sincronizacion": "",
    "ubicacion": "Tonala",
    "operacion": "Proyectado",
    "control": "Foto Celda"
  },
  {
    "circuito": "TONLI01602",
    "comunicacion": "Proyectado",
    "sincronizacion": "",
    "ubicacion": "Tonala",
    "operacion": "Proyectado",
    "control": "Foto Celda"
  },
  {
    "circuito": "TONLI01702",
    "comunicacion": "Proyectado",
    "sincronizacion": "",
    "ubicacion": "Tonala",
    "operacion": "Proyectado",
    "control": "Foto Celda"
  },
  {
    "circuito": "TONLI01701",
    "comunicacion": "Proyectado",
    "sincronizacion": "",
    "ubicacion": "Tonala",
    "operacion": "Proyectado",
    "control": "Foto Celda"
  },
  {
    "circuito": "TONLI01801",
    "comunicacion": "Proyectado",
    "sincronizacion": "",
    "ubicacion": "Tonala",
    "operacion": "Proyectado",
    "control": "Foto Celda"
  },
  {
    "circuito": "TONLI01901",
    "comunicacion": "Proyectado",
    "sincronizacion": "",
    "ubicacion": "Tonala",
    "operacion": "Proyectado",
    "control": "Foto Celda"
  },
  {
    "circuito": "TONLI02002",
    "comunicacion": "Proyectado",
    "sincronizacion": "",
    "ubicacion": "Tonala",
    "operacion": "Proyectado",
    "control": "Foto Celda"
  },
  {
    "circuito": "TONLI02001",
    "comunicacion": "Proyectado",
    "sincronizacion": "",
    "ubicacion": "Tonala",
    "operacion": "Proyectado",
    "control": "Foto Celda"
  },
  {
    "circuito": "TONLI02003",
    "comunicacion": "Proyectado",
    "sincronizacion": "",
    "ubicacion": "Tonala",
    "operacion": "Proyectado",
    "control": "Foto Celda"
  },
  {
    "circuito": "TONLI02004",
    "comunicacion": "Proyectado",
    "sincronizacion": "",
    "ubicacion": "Tonala",
    "operacion": "Proyectado",
    "control": "Foto Celda"
  },
  {
    "circuito": "TONLI02101",
    "comunicacion": "Proyectado",
    "sincronizacion": "",
    "ubicacion": "Tonala",
    "operacion": "Proyectado",
    "control": "Foto Celda"
  },
  {
    "circuito": "TONLI02102",
    "comunicacion": "Proyectado",
    "sincronizacion": "",
    "ubicacion": "Tonala",
    "operacion": "Proyectado",
    "control": "Foto Celda"
  },
  {
    "circuito": "TONLI02103",
    "comunicacion": "Proyectado",
    "sincronizacion": "",
    "ubicacion": "Tonala",
    "operacion": "Proyectado",
    "control": "Foto Celda"
  },
  {
    "circuito": "TONLI02105",
    "comunicacion": "Proyectado",
    "sincronizacion": "",
    "ubicacion": "Tonala",
    "operacion": "Proyectado",
    "control": "Foto Celda"
  },
  {
    "circuito": "TONLI02106",
    "comunicacion": "Proyectado",
    "sincronizacion": "",
    "ubicacion": "Tonala",
    "operacion": "Proyectado",
    "control": "Foto Celda"
  },
  {
    "circuito": "TONLI02109",
    "comunicacion": "Proyectado",
    "sincronizacion": "",
    "ubicacion": "Tonala",
    "operacion": "Proyectado",
    "control": "Foto Celda"
  },
  {
    "circuito": "TONLI02108",
    "comunicacion": "Proyectado",
    "sincronizacion": "",
    "ubicacion": "Tonala",
    "operacion": "Proyectado",
    "control": "Foto Celda"
  },
  {
    "circuito": "TONLI02107",
    "comunicacion": "Proyectado",
    "sincronizacion": "",
    "ubicacion": "Tonala",
    "operacion": "Proyectado",
    "control": "Foto Celda"
  },
  {
    "circuito": "TONLI02104",
    "comunicacion": "Proyectado",
    "sincronizacion": "",
    "ubicacion": "Tonala",
    "operacion": "Proyectado",
    "control": "Foto Celda"
  },
  {
    "circuito": "TONLI02202",
    "comunicacion": "Proyectado",
    "sincronizacion": "",
    "ubicacion": "Tonala",
    "operacion": "Proyectado",
    "control": "Foto Celda"
  },
  {
    "circuito": "TONLI02201",
    "comunicacion": "Proyectado",
    "sincronizacion": "",
    "ubicacion": "Tonala",
    "operacion": "Proyectado",
    "control": "Foto Celda"
  },
  {
    "circuito": "TONLI02401",
    "comunicacion": "Proyectado",
    "sincronizacion": "",
    "ubicacion": "Tonala",
    "operacion": "Proyectado",
    "control": "Foto Celda"
  },
  {
    "circuito": "TONLI02601",
    "comunicacion": "Proyectado",
    "sincronizacion": "",
    "ubicacion": "Tonala",
    "operacion": "Proyectado",
    "control": "Foto Celda"
  },
  {
    "circuito": "TONLI02602",
    "comunicacion": "Proyectado",
    "sincronizacion": "",
    "ubicacion": "Tonala",
    "operacion": "Proyectado",
    "control": "Foto Celda"
  },
  {
    "circuito": "TONLI02603",
    "comunicacion": "Proyectado",
    "sincronizacion": "",
    "ubicacion": "Tonala",
    "operacion": "Proyectado",
    "control": "Foto Celda"
  },
  {
    "circuito": "control1 2",
    "comunicacion": "Proyectado",
    "sincronizacion": "",
    "ubicacion": "Tonala",
    "operacion": "Proyectado",
    "control": "Foto Celda"
  },
  {
    "circuito": "TONLI03002",
    "comunicacion": "Proyectado",
    "sincronizacion": "",
    "ubicacion": "Tonala",
    "operacion": "Proyectado",
    "control": "Foto Celda"
  },
  {
    "circuito": "TONLI02902",
    "comunicacion": "Proyectado",
    "sincronizacion": "",
    "ubicacion": "Tonala",
    "operacion": "Proyectado",
    "control": "Foto Celda"
  },
  {
    "circuito": "TONLI03001",
    "comunicacion": "Proyectado",
    "sincronizacion": "",
    "ubicacion": "Tonala",
    "operacion": "Proyectado",
    "control": "Foto Celda"
  },
  {
    "circuito": "TONLI03101",
    "comunicacion": "Proyectado",
    "sincronizacion": "",
    "ubicacion": "Tonala",
    "operacion": "Proyectado",
    "control": "Foto Celda"
  },
  {
    "circuito": "TONLI03102",
    "comunicacion": "Proyectado",
    "sincronizacion": "",
    "ubicacion": "Tonala",
    "operacion": "Proyectado",
    "control": "Foto Celda"
  },
  {
    "circuito": "TONLI02901",
    "comunicacion": "Proyectado",
    "sincronizacion": "",
    "ubicacion": "Tonala",
    "operacion": "Proyectado",
    "control": "Foto Celda"
  }
]